<?xml version="1.0" encoding="utf-8"?>
<COLLADA xmlns="http://www.collada.org/2005/11/COLLADASchema" version="1.4.1">
  <asset>
    <contributor>
      <author>Blender User</author>
      <authoring_tool>Blender 2.78.0 commit date:2016-09-26, commit time:12:42, hash:4bb1e22</authoring_tool>
    </contributor>
    <created>2017-01-11T13:29:50</created>
    <modified>2017-01-11T13:29:50</modified>
    <unit name="meter" meter="1"/>
    <up_axis>Z_UP</up_axis>
  </asset>
  <library_cameras>
    <camera id="Camera-camera" name="Camera">
      <optics>
        <technique_common>
          <perspective>
            <xfov sid="xfov">49.13434</xfov>
            <aspect_ratio>1.777778</aspect_ratio>
            <znear sid="znear">0.1</znear>
            <zfar sid="zfar">100</zfar>
          </perspective>
        </technique_common>
      </optics>
      <extra>
        <technique profile="blender">
          <YF_dofdist>0</YF_dofdist>
          <shiftx>0</shiftx>
          <shifty>0</shifty>
        </technique>
      </extra>
    </camera>
  </library_cameras>
  <library_lights>
    <light id="Lamp-light" name="Lamp">
      <technique_common>
        <point>
          <color sid="color">1 1 1</color>
          <constant_attenuation>1</constant_attenuation>
          <linear_attenuation>0</linear_attenuation>
          <quadratic_attenuation>0.00111109</quadratic_attenuation>
        </point>
      </technique_common>
      <extra>
        <technique profile="blender">
          <adapt_thresh>0.000999987</adapt_thresh>
          <area_shape>1</area_shape>
          <area_size>0.1</area_size>
          <area_sizey>0.1</area_sizey>
          <area_sizez>1</area_sizez>
          <atm_distance_factor>1</atm_distance_factor>
          <atm_extinction_factor>1</atm_extinction_factor>
          <atm_turbidity>2</atm_turbidity>
          <att1>0</att1>
          <att2>1</att2>
          <backscattered_light>1</backscattered_light>
          <bias>1</bias>
          <blue>1</blue>
          <buffers>1</buffers>
          <bufflag>0</bufflag>
          <bufsize>2880</bufsize>
          <buftype>2</buftype>
          <clipend>30.002</clipend>
          <clipsta>1.000799</clipsta>
          <compressthresh>0.04999995</compressthresh>
          <dist sid="blender_dist">29.99998</dist>
          <energy sid="blender_energy">1</energy>
          <falloff_type>2</falloff_type>
          <filtertype>0</filtertype>
          <flag>0</flag>
          <gamma sid="blender_gamma">1</gamma>
          <green>1</green>
          <halo_intensity sid="blnder_halo_intensity">1</halo_intensity>
          <horizon_brightness>1</horizon_brightness>
          <mode>8192</mode>
          <ray_samp>1</ray_samp>
          <ray_samp_method>1</ray_samp_method>
          <ray_samp_type>0</ray_samp_type>
          <ray_sampy>1</ray_sampy>
          <ray_sampz>1</ray_sampz>
          <red>1</red>
          <samp>3</samp>
          <shadhalostep>0</shadhalostep>
          <shadow_b sid="blender_shadow_b">0</shadow_b>
          <shadow_g sid="blender_shadow_g">0</shadow_g>
          <shadow_r sid="blender_shadow_r">0</shadow_r>
          <sky_colorspace>0</sky_colorspace>
          <sky_exposure>1</sky_exposure>
          <skyblendfac>1</skyblendfac>
          <skyblendtype>1</skyblendtype>
          <soft>3</soft>
          <spotblend>0.15</spotblend>
          <spotsize>75</spotsize>
          <spread>1</spread>
          <sun_brightness>1</sun_brightness>
          <sun_effect_type>0</sun_effect_type>
          <sun_intensity>1</sun_intensity>
          <sun_size>1</sun_size>
          <type>0</type>
        </technique>
      </extra>
    </light>
  </library_lights>
  <library_images>
    <image id="EMG30_WHEEL_png" name="EMG30_WHEEL_png">
      <init_from>EMG30_WHEEL.png</init_from>
    </image>
  </library_images>
  <library_effects>
    <effect id="Material-effect">
      <profile_COMMON>
        <newparam sid="EMG30_WHEEL_png-surface">
          <surface type="2D">
            <init_from>EMG30_WHEEL_png</init_from>
          </surface>
        </newparam>
        <newparam sid="EMG30_WHEEL_png-sampler">
          <sampler2D>
            <source>EMG30_WHEEL_png-surface</source>
          </sampler2D>
        </newparam>
        <technique sid="common">
          <phong>
            <emission>
              <color sid="emission">0 0 0 1</color>
            </emission>
            <ambient>
              <color sid="ambient">0 0 0 1</color>
            </ambient>
            <diffuse>
              <texture texture="EMG30_WHEEL_png-sampler" texcoord="UVMap"/>
            </diffuse>
            <specular>
              <color sid="specular">0.5 0.5 0.5 1</color>
            </specular>
            <shininess>
              <float sid="shininess">50</float>
            </shininess>
            <index_of_refraction>
              <float sid="index_of_refraction">1</float>
            </index_of_refraction>
          </phong>
        </technique>
      </profile_COMMON>
    </effect>
  </library_effects>
  <library_materials>
    <material id="Material-material" name="Material">
      <instance_effect url="#Material-effect"/>
    </material>
  </library_materials>
  <library_geometries>
    <geometry id="Wheel_L-mesh" name="Wheel_L">
      <mesh>
        <source id="Wheel_L-mesh-positions">
          <float_array id="Wheel_L-mesh-positions-array" count="192">0 1 0 -0.1950903 0.9807853 0 -0.3826835 0.9238795 0 -0.5555703 0.8314696 0 -0.7071068 0.7071068 0 -0.8314697 0.5555702 0 -0.9238795 0.3826834 0 -0.9807853 0.1950903 0 -1 0 0 -0.9807853 -0.1950902 0 -0.9238796 -0.3826833 0 -0.8314697 -0.5555702 0 -0.7071068 -0.7071068 0 -0.5555702 -0.8314697 0 -0.3826833 -0.9238796 0 -0.1950901 -0.9807853 0 3.25841e-7 -1 0 0.1950907 -0.9807852 0 0.3826839 -0.9238793 0 0.5555707 -0.8314693 0 0.7071073 -0.7071064 0 0.83147 -0.5555697 0 0.9238799 -0.3826827 0 0.9807854 -0.1950894 0 1 9.65599e-7 0 0.9807851 0.1950913 0 0.9238791 0.3826845 0 0.8314689 0.5555713 0 0.7071059 0.7071077 0 0.5555691 0.8314704 0 0.3826821 0.9238801 0 0.1950888 0.9807856 0 0 1 0.02572143 -0.1950903 0.9807853 0.02572143 -0.3826835 0.9238795 0.02572143 -0.5555703 0.8314696 0.02572143 -0.7071068 0.7071068 0.02572143 -0.8314697 0.5555702 0.02572143 -0.9238795 0.3826834 0.02572143 -0.9807853 0.1950903 0.02572143 -1 0 0.02572143 -0.9807853 -0.1950902 0.02572143 -0.9238796 -0.3826833 0.02572143 -0.8314697 -0.5555702 0.02572143 -0.7071068 -0.7071068 0.02572143 -0.5555702 -0.8314697 0.02572143 -0.3826833 -0.9238796 0.02572143 -0.1950901 -0.9807853 0.02572143 3.25841e-7 -1 0.02572143 0.1950907 -0.9807852 0.02572143 0.3826839 -0.9238793 0.02572143 0.5555707 -0.8314693 0.02572143 0.7071073 -0.7071064 0.02572143 0.83147 -0.5555697 0.02572143 0.9238799 -0.3826827 0.02572143 0.9807854 -0.1950894 0.02572143 1 9.65599e-7 0.02572143 0.9807851 0.1950913 0.02572143 0.9238791 0.3826845 0.02572143 0.8314689 0.5555713 0.02572143 0.7071059 0.7071077 0.02572143 0.5555691 0.8314704 0.02572143 0.3826821 0.9238801 0.02572143 0.1950888 0.9807856 0.02572143</float_array>
          <technique_common>
            <accessor source="#Wheel_L-mesh-positions-array" count="64" stride="3">
              <param name="X" type="float"/>
              <param name="Y" type="float"/>
              <param name="Z" type="float"/>
            </accessor>
          </technique_common>
        </source>
        <source id="Wheel_L-mesh-normals">
          <float_array id="Wheel_L-mesh-normals-array" count="210">0 0 -1 0 0 1 0.9569407 -0.2902834 0 -0.9569405 -0.2902843 0 0.9951849 -0.09801632 0 -0.8819215 -0.4713965 0 0.9951847 0.09801781 0 -0.7730104 -0.6343933 0 0.9569401 0.2902855 0 -0.6343935 -0.7730103 0 0.8819207 0.4713978 0 -0.4713968 -0.8819214 0 -0.09801727 0.9951847 0 0.7730097 0.6343942 0 -0.2902843 -0.9569405 0 -0.2902846 0.9569404 0 0.6343925 0.7730111 0 -0.09801691 -0.9951848 0 -0.4713966 0.8819213 0 0.4713956 0.881922 0 0.09801751 -0.9951847 0 -0.6343935 0.7730103 0 0.2902831 0.9569408 0 0.2902852 -0.9569402 0 -0.7730104 0.6343933 0 0.0980165 0.9951848 0 0.4713972 -0.8819211 0 -0.8819212 0.4713968 0 0.634394 -0.7730099 0 -0.9569403 0.2902849 0 0.7730107 -0.6343931 0 -0.9951847 0.09801709 0 0.8819218 -0.4713958 0 -0.9951848 -0.09801638 0 0 0 1 1.24222e-7 0 1 -1.24222e-7 0 1 1.24222e-7 0 1 0 0 1 0 0 1 1.24222e-7 0 1 -1.24222e-7 0 1 0 0 1 0 0 1 0 0 1 0 0 1 0 0 1 0 0 1 0 0 1 0 0 1 0 0 1 0.9569406 -0.290284 0 -0.9569403 -0.2902849 0 0.9951847 0.09801852 0 0.9569399 0.2902863 0 -0.6343933 -0.7730105 0 0.8819211 0.4713973 0 -0.4713966 -0.8819214 0 -0.2902843 -0.9569405 0 -0.2902847 0.9569404 0 0.634392 0.7730115 0 -0.6343933 0.7730104 0 0.290283 0.9569408 0 0.2902852 -0.9569403 0 0.4713969 -0.8819212 0 -0.8819217 0.4713962 0 0.6343937 -0.7730103 0 0.773011 -0.6343926 0 0.8819215 -0.4713963 0 -0.9951847 -0.09801787 0</float_array>
          <technique_common>
            <accessor source="#Wheel_L-mesh-normals-array" count="70" stride="3">
              <param name="X" type="float"/>
              <param name="Y" type="float"/>
              <param name="Z" type="float"/>
            </accessor>
          </technique_common>
        </source>
        <source id="Wheel_L-mesh-map-0">
          <float_array id="Wheel_L-mesh-map-0-array" count="744">0 0 0 0 0 0 0.5492357 1.0004e-4 0.9998997 0.5492365 9.99799e-5 0.4507642 0 0 0 0 0 0 0 0 0 0 0 0 0 0 0 0 0 0 0 0 0 0 0 0 0 0 0 0 0 0 0 0 0 0 0 0 0 0 0 0 0 0 0 0 0 0 0 0 0 0 0 0 0 0 0 0 0 0 0 0 0 0 0 0 0 0 0 0 0 0 0 0 0 0 0 0 0 0 0 0 0 0 0 0 0 0 0 0 0 0 0 0 0 0 0 0 0 0 0 0 0 0 0 0 0 0 0 0 0 0 0 0 0 0 0 0 0 0 0 0 0 0 0 0 0 0 0 0 0 0 0 0 0 0 0 0 0 0 0 0 0 0 0 0 0 0 0 0 0 0 0 0 0 0 0 0 0 0 0 0 0 0 0 0 0 0 0 0 0 0 0 0 0 0 0 0 0 0 0 0 0 0 0 0 0 0 0 0 0 0 0 0 0 0 0 0 0 0 0 0 0 0 0 0 0 0 0 0 0 0 0 0 0 0 0 0 0 0 0 0 0 0 0 0 0 0 0 0 0 0 0 0 0 0 0 0 0 0 0 0 0 0 0 0 0 0 0 0 0 0 0 0 0 0 0 0 0 0 0 0 0 0 0 0 0 0 0 0 0 0 0 0 0 0 0 0 0 0 0 0 0 0 0 0 0 0 0 0 0 0 0 0 0 0 0 0 0 0 0 0 0 0 0 0 0 0 0 0 0 0 0 0 0 0 0 0 0 0 0 0 0 0 0 0 0 0 0 0 0 0 0 0 0 0 0 0 0 0 0 0 0 0 0 0 0 0 0 0 0 0 0 0 0 0 0 0 0 0 0 0 0 0 0 0 0 0 0.4507642 0.9998974 0.3541846 0.9806865 0.1117029 0.8186652 0.2632088 0.943003 0.1813328 0.8882951 0.1117029 0.8186652 0.1117029 0.8186652 0.05699491 0.7367894 0.01931148 0.6458145 0.01931148 0.6458145 1.00339e-4 0.5492352 0.1117029 0.8186652 9.99799e-5 0.4507642 0.01931041 0.3541855 0.0569936 0.2632094 0.0569936 0.2632094 0.1117011 0.1813333 0.181331 0.111703 0.181331 0.111703 0.2632074 0.05699467 0.3541836 0.01931095 0.3541836 0.01931095 0.4507636 9.99799e-5 0.181331 0.111703 0.5492357 1.0004e-4 0.6458157 0.01931107 0.7367921 0.05699473 0.7367921 0.05699473 0.8186681 0.1117027 0.8882983 0.181333 0.8882983 0.181333 0.9430062 0.2632095 0.9806895 0.3541857 0.9806895 0.3541857 0.9999001 0.4507648 0.8882983 0.181333 0.9998997 0.5492365 0.9806887 0.6458154 0.9430049 0.7367907 0.9430049 0.7367907 0.8882969 0.8186666 0.8186669 0.8882962 0.8186669 0.8882962 0.7367905 0.943004 0.6458144 0.9806871 0.6458144 0.9806871 0.549235 0.9998977 0.8186669 0.8882962 0.3541846 0.9806865 0.2632088 0.943003 0.1117029 0.8186652 0.1117029 0.8186652 1.00339e-4 0.5492352 9.99799e-5 0.4507642 9.99799e-5 0.4507642 0.0569936 0.2632094 0.5492357 1.0004e-4 0.181331 0.111703 0.4507636 9.99799e-5 0.5492357 1.0004e-4 0.5492357 1.0004e-4 0.7367921 0.05699473 0.9998997 0.5492365 0.8882983 0.181333 0.9999001 0.4507648 0.9998997 0.5492365 0.9998997 0.5492365 0.9430049 0.7367907 0.8186669 0.8882962 0.8186669 0.8882962 0.549235 0.9998977 0.4507642 0.9998974 0.4507642 0.9998974 0.1117029 0.8186652 9.99799e-5 0.4507642 0.0569936 0.2632094 0.181331 0.111703 0.5492357 1.0004e-4 0.7367921 0.05699473 0.8882983 0.181333 0.9998997 0.5492365 0.9998997 0.5492365 0.8186669 0.8882962 0.4507642 0.9998974 0.4507642 0.9998974 9.99799e-5 0.4507642 0.9998997 0.5492365 0 0 0 0 0 0 0 0 0 0 0 0 0 0 0 0 0 0 0 0 0 0 0 0 0 0 0 0 0 0 0 0 0 0 0 0 0 0 0 0 0 0 0 0 0 0 0 0 0 0 0 0 0 0 0 0 0 0 0 0 0 0 0 0 0 0 0 0 0 0 0 0 0 0 0 0 0 0 0 0 0 0 0 0 0 0 0 0 0 0 0 0 0 0 0 0 0 0 0 0 0 0 0 0 0 0 0 0 0 0 0 0 0 0 0 0 0 0 0 0 0 0 0 0 0 0 0 0 0 0 0 0 0 0 0 0 0 0 0 0 0 0 0 0 0 0 0 0 0 0 0 0 0 0 0 0 0 0 0 0 0 0 0 0 0 0 0 0 0 0 0 0 0 0 0 0 0 0 0 0 0 0 0 0 0 0 0 0 0 0 0 0</float_array>
          <technique_common>
            <accessor source="#Wheel_L-mesh-map-0-array" count="372" stride="2">
              <param name="S" type="float"/>
              <param name="T" type="float"/>
            </accessor>
          </technique_common>
        </source>
        <vertices id="Wheel_L-mesh-vertices">
          <input semantic="POSITION" source="#Wheel_L-mesh-positions"/>
        </vertices>
        <polylist material="Material-material" count="124">
          <input semantic="VERTEX" source="#Wheel_L-mesh-vertices" offset="0"/>
          <input semantic="NORMAL" source="#Wheel_L-mesh-normals" offset="1"/>
          <input semantic="TEXCOORD" source="#Wheel_L-mesh-map-0" offset="2" set="0"/>
          <vcount>3 3 3 3 3 3 3 3 3 3 3 3 3 3 3 3 3 3 3 3 3 3 3 3 3 3 3 3 3 3 3 3 3 3 3 3 3 3 3 3 3 3 3 3 3 3 3 3 3 3 3 3 3 3 3 3 3 3 3 3 3 3 3 3 3 3 3 3 3 3 3 3 3 3 3 3 3 3 3 3 3 3 3 3 3 3 3 3 3 3 3 3 3 3 3 3 3 3 3 3 3 3 3 3 3 3 3 3 3 3 3 3 3 3 3 3 3 3 3 3 3 3 3 3 </vcount>
          <p>18 0 0 10 0 1 26 0 2 48 1 3 56 1 4 40 1 5 23 2 6 54 2 7 22 2 8 10 3 9 41 3 10 9 3 11 24 4 12 55 4 13 23 4 14 11 5 15 42 5 16 10 5 17 25 6 18 56 6 19 24 6 20 12 7 21 43 7 22 11 7 23 26 8 24 57 8 25 25 8 26 13 9 27 44 9 28 12 9 29 27 10 30 58 10 31 26 10 32 14 11 33 45 11 34 13 11 35 1 12 36 32 12 37 0 12 38 28 13 39 59 13 40 27 13 41 15 14 42 46 14 43 14 14 44 2 15 45 33 15 46 1 15 47 29 16 48 60 16 49 28 16 50 16 17 51 47 17 52 15 17 53 3 18 54 34 18 55 2 18 56 30 19 57 61 19 58 29 19 59 17 20 60 48 20 61 16 20 62 4 21 63 35 21 64 3 21 65 31 22 66 62 22 67 30 22 68 18 23 69 49 23 70 17 23 71 5 24 72 36 24 73 4 24 74 0 25 75 63 25 76 31 25 77 19 26 78 50 26 79 18 26 80 6 27 81 37 27 82 5 27 83 20 28 84 51 28 85 19 28 86 7 29 87 38 29 88 6 29 89 21 30 90 52 30 91 20 30 92 8 31 93 39 31 94 7 31 95 22 32 96 53 32 97 21 32 98 9 33 99 40 33 100 8 33 101 2 0 102 1 0 103 0 0 104 0 0 105 31 0 106 2 0 107 30 0 108 29 0 109 28 0 110 28 0 111 27 0 112 26 0 113 26 0 114 25 0 115 24 0 116 24 0 117 23 0 118 26 0 119 22 0 120 21 0 121 18 0 122 20 0 123 19 0 124 18 0 125 18 0 126 17 0 127 16 0 128 16 0 129 15 0 130 14 0 131 14 0 132 13 0 133 12 0 134 12 0 135 11 0 136 10 0 137 10 0 138 9 0 139 8 0 140 8 0 141 7 0 142 10 0 143 6 0 144 5 0 145 4 0 146 4 0 147 3 0 148 2 0 149 2 0 150 31 0 151 30 0 152 30 0 153 28 0 154 2 0 155 26 0 156 23 0 157 22 0 158 21 0 159 20 0 160 18 0 161 18 0 162 16 0 163 10 0 164 14 0 165 12 0 166 10 0 167 10 0 168 7 0 169 6 0 170 6 0 171 4 0 172 10 0 173 2 0 174 28 0 175 26 0 176 26 0 177 22 0 178 18 0 179 16 0 180 14 0 181 10 0 182 10 0 183 4 0 184 2 0 185 2 0 186 26 0 187 10 0 188 32 34 189 33 34 190 36 34 191 34 34 192 35 34 193 36 34 194 36 35 195 37 35 196 38 35 197 38 34 198 39 34 199 36 34 200 40 36 201 41 36 202 42 36 203 42 37 204 43 37 205 44 37 206 44 38 207 45 38 208 46 38 209 46 34 210 47 34 211 44 34 212 48 34 213 49 34 214 50 34 215 50 34 216 51 34 217 52 34 218 52 34 219 53 34 220 54 34 221 54 39 222 55 39 223 52 39 224 56 40 225 57 40 226 58 40 227 58 41 228 59 41 229 60 41 230 60 42 231 61 42 232 62 42 233 62 34 234 63 34 235 60 34 236 33 43 237 34 43 238 36 43 239 36 34 240 39 34 241 40 34 242 40 44 243 42 44 244 48 44 245 44 45 246 47 45 247 48 45 248 48 34 249 50 34 250 56 34 251 52 46 252 55 46 253 56 46 254 56 34 255 58 34 256 60 34 257 60 47 258 63 47 259 32 47 260 32 34 261 36 34 262 40 34 263 42 48 264 44 48 265 48 48 266 50 34 267 52 34 268 56 34 269 56 49 270 60 49 271 32 49 272 32 50 273 40 50 274 56 50 275 23 51 276 55 51 277 54 51 278 10 52 279 42 52 280 41 52 281 24 4 282 56 4 283 55 4 284 11 5 285 43 5 286 42 5 287 25 53 288 57 53 289 56 53 290 12 7 291 44 7 292 43 7 293 26 54 294 58 54 295 57 54 296 13 55 297 45 55 298 44 55 299 27 56 300 59 56 301 58 56 302 14 57 303 46 57 304 45 57 305 1 12 306 33 12 307 32 12 308 28 13 309 60 13 310 59 13 311 15 58 312 47 58 313 46 58 314 2 59 315 34 59 316 33 59 317 29 60 318 61 60 319 60 60 320 16 17 321 48 17 322 47 17 323 3 18 324 35 18 325 34 18 326 30 19 327 62 19 328 61 19 329 17 20 330 49 20 331 48 20 332 4 61 333 36 61 334 35 61 335 31 62 336 63 62 337 62 62 338 18 63 339 50 63 340 49 63 341 5 24 342 37 24 343 36 24 344 0 25 345 32 25 346 63 25 347 19 64 348 51 64 349 50 64 350 6 65 351 38 65 352 37 65 353 20 66 354 52 66 355 51 66 356 7 29 357 39 29 358 38 29 359 21 67 360 53 67 361 52 67 362 8 31 363 40 31 364 39 31 365 22 68 366 54 68 367 53 68 368 9 69 369 41 69 370 40 69 371</p>
        </polylist>
      </mesh>
    </geometry>
  </library_geometries>
  <library_controllers/>
  <library_visual_scenes>
    <visual_scene id="Scene" name="Scene">
      <node id="Camera" name="Camera" type="NODE">
        <matrix sid="transform">0.6858805 -0.3173701 0.6548619 7.481132 0.7276338 0.3124686 -0.6106656 -6.50764 -0.01081678 0.8953432 0.4452454 5.343665 0 0 0 1</matrix>
        <instance_camera url="#Camera-camera"/>
      </node>
      <node id="Lamp" name="Lamp" type="NODE">
        <matrix sid="transform">-0.2908646 -0.7711008 0.5663932 0.6783072 0.9551712 -0.1998834 0.2183912 0.4861828 -0.05518906 0.6045247 0.7946723 0.3258199 0 0 0 1</matrix>
        <instance_light url="#Lamp-light"/>
      </node>
      <node id="Wheel_L" name="Wheel_L" type="NODE">
        <matrix sid="transform">-0.05 0 -8.83695e-8 0 -4.37114e-9 2.18557e-9 1.010829 -0.013 0 0.05 -4.41847e-8 0 0 0 0 1</matrix>
        <instance_geometry url="#Wheel_L-mesh" name="Wheel_L">
          <bind_material>
            <technique_common>
              <instance_material symbol="Material-material" target="#Material-material">
                <bind_vertex_input semantic="UVMap" input_semantic="TEXCOORD" input_set="0"/>
              </instance_material>
            </technique_common>
          </bind_material>
        </instance_geometry>
      </node>
    </visual_scene>
  </library_visual_scenes>
  <scene>
    <instance_visual_scene url="#Scene"/>
  </scene>
</COLLADA>