<?xml version="1.0"?>
<robot name="abot" xmlns:xacro="http://www.ros.org/wiki/xacro">

  <xacro:include filename="$(find abot_description)/urdf/abot_head/abot_head_macros.urdf.xacro" />
  <xacro:include filename="$(find abot_description)/urdf/devices/device_macros.urdf.xacro" />
  <xacro:include filename="$(find abot_description)/urdf/wheels/wheel_macros.urdf.xacro" />


<!-- Cylinder -->
<xacro:macro name="cylinder_inertial" params="mass r h">
  <inertia  ixx="${mass*(3*r*r+h*h)/12}" ixy = "0" ixz = "0"
    iyy="${mass*(3*r*r+h*h)/12}" iyz = "0"
    izz="${mass*r*r/2}"
  />
</xacro:macro>

<!-- Box -->
<xacro:macro name="box_inertial" params="mass x y z">
  <inertia  ixx="${mass*(y*y+z*z)/12}" ixy = "0" ixz = "0"
    iyy="${mass*(x*x+z*z)/12}" iyz = "0"
    izz="${mass*(x*x+z*z)/12}"
  />
</xacro:macro>

<!-- Sphere -->
<xacro:macro name="sphere_inertial" params="mass r">
  <inertia  ixx="${2*mass*r*r/5}" ixy = "0" ixz = "0"
    iyy="${2*mass*r*r/5}" iyz = "0"
    izz="${2*mass*r*r/5}"
  />
</xacro:macro>

</robot>
